{
  "$schema": "..\\..\\node_modules\\nx\\schemas\\project-schema.json",
  "sourceRoot": "apps/lawyer-e2e/src",
  "projectType": "application",
  "targets": {
    "e2e": {
      "executor": "@nrwl/cypress:cypress",
      "options": {
        "cypressConfig": "apps/lawyer-e2e/cypress.json",
        "devServerTarget": "lawyer:serve:development"
      },
      "configurations": {
        "production": {
          "devServerTarget": "lawyer:serve:production"
        }
      }
    },
    "lint": {
      "executor": "@nrwl/linter:eslint",
      "outputs": ["{options.outputFile}"],
      "options": {
        "lintFilePatterns": ["apps/lawyer-e2e/**/*.{js,ts}"]
      }
    }
  },
  "tags": [],
  "implicitDependencies": ["lawyer"]
}
